Analisis dan Visualisasi Data Iklim dengan R & Python
…
  return(sheet_data)
})

dats

# A tibble: 420,343 × 6
   Tanggal      lon   lat  Tavg    RR Lokasi           
   <date>     <dbl> <dbl> <dbl> <dbl> <chr>            
 1 1975-01-01  113. -5.85  25.9     6 StaMet_Sangkapura
 2 1975-01-02  113. -5.85  27.9     6 StaMet_Sangkapura
 3 1975-01-03  113. -5.85  27.6     0 StaMet_Sangkapura
 4 1975-01-04  113. -5.85  27.4    26 StaMet_Sangkapura
 5 1975-01-05  113. -5.85  28.5     0 StaMet_Sangkapura
 6 1975-01-06  113. -5.85  26.8     6 StaMet_Sangkapura
 7 1975-01-07  113. -5.85  26.9     6 StaMet_Sangkapura
 8 1975-01-08  113. -5.85  26.2    11 StaMet_Sangkapura
 9 1975-01-09  113. -5.85  27.6     3 StaMet_Sangkapura
10 1975-01-10  113. -5.85  25.4     7 StaMet_Sangkapura
# ℹ 420,333 more rows
…
[420343 rows x 6 columns]

Pra-Proses Pengolahan Data Iklim (4)

Di tahapan ini, Anda dapat mencari jumlah data yang hilang untuk semua lokasi stasiun

R
Python

dats_miss <- dats %>%
  group_by(Lokasi, lon, lat) %>%
  summarise(missing_Tavg = sum(is.na(Tavg)), missing_RR = sum(is.na(RR)))
dats_miss

# A tibble: 31 × 5
# Groups:   Lokasi, lon [31]
   Lokasi                 lon   lat missing_Tavg missing_RR
   <chr>                <dbl> <dbl>        <int>      <int>
 1 HalimPK_Jakarta       107. -6.27         8841      10358
 2 StaGeof_Bandung       108. -6.88          160       1582
 3 StaGeof_Banjarnegara  110. -7.33         3038       2005
 4 StaGeof_Malang        112. -8.15          260       1450
 5 StaGeof_Nganjuk       112. -7.73         2409       4258
 6 StaGeof_Pasuruan      113. -7.70          719       1991
 7 StaGeof_Sleman        110. -7.82          902       1226
 8 StaGeof_Tangerang     106. -6.1            42        928
 9 StaKlim_Banten        107. -6.26         1069       2620
10 StaKlim_JawaBarat     107. -6.5           201       2029
# ℹ 21 more rows
…
Selanjutnya, Anda dapat menghitung rata-rata bulanan curah hujan dan suhu udara di setiap lokasi stasiun pengamatan

R
Python

dats_monthly <- dats %>%
  group_by(Tahun = year(Tanggal), Bulan = month(Tanggal), Lokasi, lon, lat) %>%
  summarise(Tavg = mean(Tavg, na.rm = TRUE), RR = sum(RR, na.rm = TRUE)) %>%
  mutate(Bulan = make_date(Tahun, Bulan)) %>%
  select(Bulan, Lokasi, lon, lat, Tavg, RR)
dats_monthly

# A tibble: 13,835 × 7
# Groups:   Tahun, Bulan, Lokasi, lon [13,835]
   Tahun Bulan      Lokasi                   lon   lat  Tavg    RR
   <dbl> <date>     <chr>                  <dbl> <dbl> <dbl> <dbl>
 1  1975 1975-01-01 StaGeof_Bandung         108. -6.88  22.5 200. 
 2  1975 1975-01-01 StaKlim_JawaTengah      110. -6.98  26.7 220  
 3  1975 1975-01-01 StaMetMar_TanjungPriok  107. -6.11  27.3  64.4
 4  1975 1975-01-01 StaMet_Budiarto         107. -6.29  25.9 257  
 5  1975 1975-01-01 StaMet_Perak            113. -7.22  26.9 206. 
 6  1975 1975-01-01 StaMet_Sangkapura       113. -5.85  26.7 349  
 7  1975 1975-01-01 StaMet_TunggulWulung    109. -7.72  26.5 202  
 8  1975 1975-02-01 StaGeof_Bandung         108. -6.88  22.4 190  
 9  1975 1975-02-01 StaKlim_JawaTengah      110. -6.98  26.4 222. 
10  1975 1975-02-01 StaMetMar_TanjungPriok  107. -6.11  26.6 285. 
# ℹ 13,825 more rows
…
Ukuran pemusatan data (mean, median, …), ukuran penyebaran data (jarak, standar deviasi, varian, kuantil, …), serta visualisasi data (histogram, boxplot, scatter plot) adalah beberapa metode yang digunakan di dalam EDA

Pada contoh data iklim Pulau Jawa, misalkan mencari rata-rata curah hujan dan suhu udara bulanan klimatologi (1975 - 2022), serta standar deviasinya di setiap lokasi stasiun pengamatan

R
Python

dats_mean <- dats %>%
  group_by(Lokasi, lon, lat, Bulan = month(Tanggal), Tahun = year(Tanggal)) %>%
  summarise(Tavg_av = mean(Tavg, na.rm = TRUE), RR_av = sum(RR, na.rm = TRUE), 
            Tavg_sd = sd(Tavg, na.rm = TRUE)  , RR_sd = sd(RR, na.rm = TRUE))
dats_mean

# A tibble: 13,835 × 9
# Groups:   Lokasi, lon, lat, Bulan [397]
   Lokasi            lon   lat Bulan Tahun Tavg_av RR_av Tavg_sd RR_sd
   <chr>           <dbl> <dbl> <dbl> <dbl>   <dbl> <dbl>   <dbl> <dbl>
 1 HalimPK_Jakarta  107. -6.27     1  1980    25.6   116   0.791 10.0 
 2 HalimPK_Jakarta  107. -6.27     1  1981    25.2    80   1.00  22.4 
 3 HalimPK_Jakarta  107. -6.27     1  1982    25.2    18   1.08   6.24
 4 HalimPK_Jakarta  107. -6.27     1  1983    26.7   108   0.693 22.9 
 5 HalimPK_Jakarta  107. -6.27     1  1984    25.4   113   0.591 17.5 
 6 HalimPK_Jakarta  107. -6.27     1  1985    25.5   254   1.00  26.1 
 7 HalimPK_Jakarta  107. -6.27     1  1986    26.0    65   1.01  18.0 
 8 HalimPK_Jakarta  107. -6.27     1  1987    25.4   138   0.967 17.1 
 9 HalimPK_Jakarta  107. -6.27     1  1988    26.5    58   0.687 12.2 
10 HalimPK_Jakarta  107. -6.27     1  1989    25.9   151   0.772 25.6 
# ℹ 13,825 more rows
…
Anda juga dapat menerapkan fungsi lain, seperti quantile (kuartil, persentil, desil, …)

Pada contoh data iklim Pulau Jawa, misalkan mencari persentil ke-25 dan ke-95 dari curah hujan dan suhu udara bulanan klimatologi (1975 - 2022). Tahapan ini mungkin dapat berguna ketika mencari indeks iklim ekstrem.

R
Python

dats_quantile <- dats %>%
  group_by(Lokasi, lon, lat, Bulan = month(Tanggal)) %>%
  summarise(Tavg_q25 = quantile(Tavg, 0.25, na.rm = TRUE), RR_q25 = quantile(RR, 0.25, na.rm = TRUE), 
            Tavg_q95 = quantile(Tavg, 0.95, na.rm = TRUE), RR_q95 = quantile(RR, 0.95, na.rm = TRUE))
dats_quantile

# A tibble: 397 × 8
# Groups:   Lokasi, lon, lat [31]
   Lokasi            lon   lat Bulan Tavg_q25 RR_q25 Tavg_q95 RR_q95
   <chr>           <dbl> <dbl> <dbl>    <dbl>  <dbl>    <dbl>  <dbl>
 1 HalimPK_Jakarta  107. -6.27     1     25.7    0.5     28.7   53.8
 2 HalimPK_Jakarta  107. -6.27     2     26      0.3     28.2   55.1
 3 HalimPK_Jakarta  107. -6.27     3     26.6    0       28.9   42.4
 4 HalimPK_Jakarta  107. -6.27     4     26.8    0       29.2   42  
 5 HalimPK_Jakarta  107. -6.27     5     27.1    0       29     41.7
 6 HalimPK_Jakarta  107. -6.27     6     26.9    0       28.7   31.2
 7 HalimPK_Jakarta  107. -6.27     7     26.7    0       28.4   25.2
 8 HalimPK_Jakarta  107. -6.27     8     26.8    0       28.6   22  
 9 HalimPK_Jakarta  107. -6.27     9     27.2    0       29.1   23  
10 HalimPK_Jakarta  107. -6.27    10     27.1    0       29.7   41.2
# ℹ 387 more rows
…
